module gitlab.com/mfocko/LeetCode

go 1.21.11

require (
	github.com/davecgh/go-spew v1.1.1 // indirect
	github.com/emirpasic/gods/v2 v2.0.0-alpha // indirect
	github.com/pmezard/go-difflib v1.0.0 // indirect
	github.com/stretchr/testify v1.9.0 // indirect
	gopkg.in/yaml.v3 v3.0.1 // indirect
)
